{
    "fluentMethods": true,
    "relationships": [
        {
            "relationshipType": "many-to-one",
            "relationshipName": "avatar",
            "otherEntityName": "attachmentFile",
            "otherEntityField": "id"
        },
        {
            "relationshipType": "many-to-many",
            "otherEntityRelationshipName": "",
            "relationshipName": "console",
            "otherEntityName": "consoleDictionary",
            "otherEntityField": "id",
            "ownerSide": true
        },
        {
            "relationshipType": "many-to-many",
            "otherEntityRelationshipName": "",
            "relationshipName": "game",
            "otherEntityName": "gameDictionary",
            "otherEntityField": "id",
            "ownerSide": true
        },
        {
            "relationshipType": "one-to-many",
            "relationshipName": "joystick",
            "otherEntityName": "clubJoystick",
            "otherEntityRelationshipName": "club"
        },
        {
            "relationshipType": "one-to-many",
            "relationshipName": "zone",
            "otherEntityName": "zone",
            "otherEntityRelationshipName": "club"
        },
        {
            "relationshipType": "one-to-many",
            "relationshipName": "workRegime",
            "otherEntityName": "dayRegime",
            "otherEntityRelationshipName": "club"
        },
        {
            "relationshipName": "gallery",
            "otherEntityName": "attachmentFile",
            "relationshipType": "many-to-many",
            "otherEntityField": "id",
            "ownerSide": true,
            "otherEntityRelationshipName": "club"
        }
    ],
    "fields": [
        {
            "fieldName": "name",
            "fieldType": "String",
            "fieldValidateRules": [
                "required"
            ]
        },
        {
            "fieldName": "description",
            "fieldType": "String"
        },
        {
            "fieldName": "fullAddress",
            "fieldType": "String",
            "fieldValidateRules": [
                "required"
            ]
        },
        {
            "fieldName": "lon",
            "fieldType": "String"
        },
        {
            "fieldName": "lat",
            "fieldType": "String"
        },
        {
            "fieldName": "timeScheduleRegulation",
            "fieldType": "BigDecimal"
        },
        {
            "fieldName": "flaghookah",
            "fieldType": "Boolean"
        },
        {
            "fieldName": "phone",
            "fieldType": "String",
            "fieldValidateRules": [
                "required"
            ]
        },
        {
            "fieldName": "phoneOptional",
            "fieldType": "String"
        },
        {
            "fieldName": "vkUrl",
            "fieldType": "String"
        },
        {
            "fieldName": "instaUrl",
            "fieldType": "String"
        },
        {
            "fieldName": "telegramUrl",
            "fieldType": "String"
        },
        {
            "fieldName": "facebookUrl",
            "fieldType": "String"
        },
        {
            "fieldName": "twitterUrl",
            "fieldType": "String"
        }
    ],
    "changelogDate": "20180322000731",
    "dto": "no",
    "service": "serviceClass",
    "entityTableName": "club",
    "jpaMetamodelFiltering": false,
    "pagination": "infinite-scroll"
}
