{
    "fluentMethods": true,
    "relationships": [],
    "fields": [
        {
            "fieldName": "price",
            "fieldType": "BigDecimal",
            "fieldValidateRules": [
                "required"
            ]
        },
        {
            "fieldName": "currency",
            "fieldType": "CurrencyType",
            "fieldValues": "KZT,RU,USD,EUR"
        },
        {
            "fieldName": "createdDate",
            "fieldType": "ZonedDateTime"
        },
        {
            "fieldName": "flagDeleted",
            "fieldType": "Boolean"
        },
        {
            "fieldName": "containerClass",
            "fieldType": "String"
        },
        {
            "fieldName": "containerId",
            "fieldType": "Long"
        }
    ],
    "changelogDate": "20180322000736",
    "entityTableName": "tariff",
    "dto": "no",
    "pagination": "infinite-scroll",
    "service": "serviceClass",
    "jpaMetamodelFiltering": false
}